{
  "title": "Social",
  "items": [
    {
      "title": "Instagram",
      "icon": "instagram.png",
      "url": "/"
    },
    {
      "title": "Facebook",
      "icon": "facebook.png",
      "url": "/"
    },
    {
      "title": "Twitter",
      "icon": "twitter.png",
      "url": "/"
    },
    {
      "title": "Youtube",
      "icon": "youtube.png",
      "url": "/"
    }
  ]
}
